<?xml version="1.0" encoding="utf-8"?>
<!-- Generator: Adobe Illustrator 19.0.1, SVG Export Plug-In . SVG Version: 6.00 Build 0)  -->
<svg version="1.1" id="Capa_1" xmlns="http://www.w3.org/2000/svg" xmlns:xlink="http://www.w3.org/1999/xlink" x="0px" y="0px"
	 viewBox="-87 1 600 600" style="enable-background:new -87 1 600 600;" xml:space="preserve">
<g>
	<path d="M475.5,1L213,76L-49.5,1c0,0-2.6,30.3,0,75L213,158.1L475.5,76C478.1,31.3,475.5,1,475.5,1z M-44.7,115.3
		C-30.6,262.2,21.8,509.2,213,601c191.2-91.8,243.6-338.8,257.7-485.7L213,212.2L-44.7,115.3z"/>
</g>
</svg>
